{
    "bind_addr": "172.22.0.2",
    "bootstrap_expect": 3,
    "data_dir": "/tmp",
    "server": true,
    "retry_join": ["172.22.0.3", "172.22.0.4"],
    "node_name": "consulserver03",
    "encrypt": "oaFXMHWDYrZuXhF/+PS/LQOtc4rpoB8rqXFxl4aeJAk=",
    "client_addr": "0.0.0.0",
    "ui_config":{
        "enabled":true
    }
}